Data Transformation - R for the Social Sciences
…
There are several different summary statistics that can be generated from our data. The R base package provides many built-in functions such as mean, median, min, max, and range. By default, all R functions operating on vectors that contains missing data will return NA. It’s a way to make sure that users know they have missing data, and make a conscious decision on how to deal with it. When dealing with simple statistics like the mean, the easiest way to ignore NA (the missing data) is to use na.rm=TRUE (rm stands for remove). An alternate option is to use the function is.na(), which evaluates to true if the value passed to it is not a number. This function is more useful as a part of a filter, where you can filter out everything that is not a number. For that purpose you would do something like

gapminder %>%
  filter(!is.na(someColumn)) %>%
  head

The ! symbol negates it, so we’re asking for everything that is not an NA.

We often want to calculate the number of entries within a group. E.g. we might wonder if our dataset is balanced by country. We can do this with the n() function, or dplyr provides a count function as a convenience:

gapminder %>%
    group_by(country) %>%
    summarize(number_entries = n())

## # A tibble: 142 x 2
##        country number_entries
##          <chr>          <int>
##  1 Afghanistan             12
##  2     Albania             12
##  3     Algeria             12
##  4      Angola             12
##  5   Argentina             12
##  6   Australia             12
##  7     Austria             12
##  8     Bahrain             12
##  9  Bangladesh             12
## 10     Belgium             12
## # ... with 132 more rows

count(gapminder, country)

## # A tibble: 142 x 2
##        country     n
##          <chr> <int>
##  1 Afghanistan    12
##  2     Albania    12
##  3     Algeria    12
##  4      Angola    12
##  5   Argentina    12
##  6   Australia    12
##  7     Austria    12
##  8     Bahrain    12
##  9  Bangladesh    12
## 10     Belgium    12
## # ... with 132 more rows

The highly observant will notice the output of this looks a little different than most of our data.frames – why didn’t it print out all 60 rows, and what’s with that header info at the top? dplyr converted the data.frame to a table-data.frame, or tbl_df object. The most salient difference between them is that tbl_dfs never print more than a few rows, which can be nice. If you like this behavior, you can convert any data.frame to a tbl_df like so:

gapminder <- tbl_df(gapminder)
gapminder

## # A tibble: 1,704 x 6
##        country  year      pop continent lifeExp gdpPercap
##          <chr> <int>    <dbl>    <fctr>   <dbl>     <dbl>
##  1 Afghanistan  1952  8425333      Asia  28.801  779.4453
##  2 Afghanistan  1957  9240934      Asia  30.332  820.8530
##  3 Afghanistan  1962 10267083      Asia  31.997  853.1007
##  4 Afghanistan  1967 11537966      Asia  34.020  836.1971
##  5 Afghanistan  1972 13079460      Asia  36.088  739.9811
##  6 Afghanistan  1977 14880372      Asia  38.438  786.1134
##  7 Afghanistan  1982 12881816      Asia  39.854  978.0114
##  8 Afghanistan  1987 13867957      Asia  40.822  852.3959
##  9 Afghanistan  1992 16317921      Asia  41.674  649.3414
## 10 Afghanistan  1997 22227415      Asia  41.763  635.3414
## # ... with 1,694 more rows

Now it prints nicely, so we don’t need to use head.

We can also do multiple groupings. Suppose we want the maximum life expectancy in each continent for each year. We group by continent and year and calculate the maximum with the max function:

gapminder %>%
    group_by(continent, year) %>%
    summarize(longest_life = max(lifeExp))

## # A tibble: 60 x 3
## # Groups:   continent [?]
##    continent  year longest_life
##       <fctr> <int>        <dbl>
##  1    Europe  1952        72.67
##  2    Europe  1957        73.47
##  3    Europe  1962        73.68
##  4    Europe  1967        74.16
##  5    Europe  1972        74.72
##  6    Europe  1977        76.11
##  7    Europe  1982        76.99
##  8    Europe  1987        77.41
##  9    Europe  1992        78.77
## 10    Europe  1997        79.39
## # ... with 50 more rows
…
max(c(1, 7, 4))

## [1] 7

which.max(c(1, 7, 4))

## [1] 2

Now, back to the question: Where lifeExp is at a maximum, what is the entry in country?

gapminder %>%
    group_by(continent, year) %>%
    summarize(longest_life = max(lifeExp), country = country[which.max(lifeExp)])

## # A tibble: 60 x 4
## # Groups:   continent [?]
##    continent  year longest_life     country
##       <fctr> <int>        <dbl>       <chr>
##  1    Europe  1952        72.67      Norway
##  2    Europe  1957        73.47     Iceland
##  3    Europe  1962        73.68     Iceland
##  4    Europe  1967        74.16      Sweden
##  5    Europe  1972        74.72      Sweden
##  6    Europe  1977        76.11     Iceland
##  7    Europe  1982        76.99     Iceland
##  8    Europe  1987        77.41 Switzerland
##  9    Europe  1992        78.77     Iceland
## 10    Europe  1997        79.39      Sweden
## # ... with 50 more rows
…
